\relax 
\catcode`"\active
\select@language{dutch}
\@writefile{toc}{\select@language{dutch}}
\@writefile{lof}{\select@language{dutch}}
\@writefile{lot}{\select@language{dutch}}
\@writefile{toc}{\contentsline {section}{\numberline {1}Opdrachten}{2}}
\@writefile{toc}{\contentsline {section}{\numberline {2}Opdrachten}{8}}
