\relax 
\catcode`"\active
\select@language{dutch}
\@writefile{toc}{\select@language{dutch}}
\@writefile{lof}{\select@language{dutch}}
\@writefile{lot}{\select@language{dutch}}
\@writefile{toc}{\contentsline {section}{\numberline {1}Opdrachten}{2}}
\@writefile{toc}{\contentsline {section}{\numberline {2}Opdrachten}{8}}
\@writefile{lof}{\contentsline {figure}{\numberline {1}{\ignorespaces Opdracht 2.1 in uitvoer.}}{8}}
\@writefile{lof}{\contentsline {figure}{\numberline {2}{\ignorespaces Opdracht 2.3 in uitvoer.}}{9}}
\@writefile{toc}{\contentsline {section}{\numberline {3}Opdrachten}{13}}
\@writefile{lof}{\contentsline {figure}{\numberline {3}{\ignorespaces Opdracht 3.1 in uitvoer.}}{13}}
\@writefile{toc}{\contentsline {section}{\numberline {4}Opdrachten}{15}}
\@writefile{lof}{\contentsline {figure}{\numberline {4}{\ignorespaces Opdracht 4.1b in uitvoer.}}{15}}
\@writefile{lof}{\contentsline {figure}{\numberline {5}{\ignorespaces Opdracht 4.2a in uitvoer.}}{16}}
