\select@language {dutch}
\contentsline {section}{\numberline {1}Opdrachten}{2}
\contentsline {section}{\numberline {2}Opdrachten}{8}
\contentsline {section}{\numberline {3}Opdrachten}{13}
\contentsline {section}{\numberline {4}Opdrachten}{15}
