\relax 
\catcode`"\active
\select@language{dutch}
\@writefile{toc}{\select@language{dutch}}
\@writefile{lof}{\select@language{dutch}}
\@writefile{lot}{\select@language{dutch}}
\@writefile{toc}{\contentsline {section}{\numberline {1}Opdrachten}{2}}
\@writefile{toc}{\contentsline {section}{\numberline {2}Opdrachten}{8}}
\@writefile{lof}{\contentsline {figure}{\numberline {1}{\ignorespaces Opdracht 2.1 in uitvoer.}}{8}}
\@writefile{lof}{\contentsline {figure}{\numberline {2}{\ignorespaces Opdracht 2.3 in uitvoer.}}{9}}
\@writefile{toc}{\contentsline {section}{\numberline {3}Opdrachten}{13}}
\@writefile{lof}{\contentsline {figure}{\numberline {3}{\ignorespaces Opdracht 3.1 in uitvoer.}}{13}}
\@writefile{toc}{\contentsline {section}{\numberline {4}Opdrachten}{15}}
\@writefile{lof}{\contentsline {figure}{\numberline {4}{\ignorespaces Opdracht 4.1b in uitvoer.}}{15}}
\@writefile{lof}{\contentsline {figure}{\numberline {5}{\ignorespaces Opdracht 4.2a in uitvoer.}}{16}}
\@writefile{toc}{\contentsline {section}{\numberline {5}Opdrachten}{20}}
\@writefile{lof}{\contentsline {figure}{\numberline {6}{\ignorespaces Opdracht 5.1 \& 5.2a in uitvoer.}}{20}}
\@writefile{lof}{\contentsline {figure}{\numberline {7}{\ignorespaces Opdracht 5.2b in uitvoer.}}{21}}
\@writefile{lof}{\contentsline {figure}{\numberline {8}{\ignorespaces Opdracht 5.2c in uitvoer.}}{22}}
\@writefile{lof}{\contentsline {figure}{\numberline {9}{\ignorespaces Opdracht 5.5a in uitvoer.}}{24}}
\@writefile{lof}{\contentsline {figure}{\numberline {10}{\ignorespaces Opdracht 5.6 in uitvoer, met min}}{29}}
\@writefile{lof}{\contentsline {figure}{\numberline {11}{\ignorespaces Opdracht 5.6 in uitvoer, zonder min}}{29}}
\@writefile{toc}{\contentsline {section}{\numberline {6}Opdrachten}{30}}
\@writefile{lot}{\contentsline {table}{\numberline {1}{\ignorespaces Program usages results}}{31}}
\newlabel{table:nonlin}{{1}{31}}
\@writefile{lof}{\contentsline {figure}{\numberline {12}{\ignorespaces Opdracht 6.2a in uitvoer.}}{35}}
\@writefile{lof}{\contentsline {figure}{\numberline {13}{\ignorespaces Opdracht 6.2c in uitvoer?}}{36}}
\@writefile{lof}{\contentsline {figure}{\numberline {14}{\ignorespaces Opdracht 6.2d in uitvoer.}}{37}}
